Classification with geomedian
…
series %>% 
  sits_apply(NDVI = (B05 - B04) / (B05 + B04))  %>% 
  sits_apply(EVI = 2.5 * (B05 - B04) / ((B05 + 6.0 * B04 - 7.5 * B02) + 1.0))  %>% 
  sits_select(bands = c("NDVI", "EVI"))

## # A tibble: 1,158 × 7
##    longitude latitude start_date end_date   label     cube           time_series
##        <dbl>    <dbl> <date>     <date>     <chr>     <chr>          <list>     
##  1      36.7   -0.639 2021-01-01 2022-01-01 Grassland GM-LS8-LS9-AN… <tibble>   
##  2      36.7   -0.638 2021-01-01 2022-01-01 Grassland GM-LS8-LS9-AN… <tibble>   
##  3      36.7   -0.644 2021-01-01 2022-01-01 Grassland GM-LS8-LS9-AN… <tibble>   
##  4      36.7   -0.644 2021-01-01 2022-01-01 Grassland GM-LS8-LS9-AN… <tibble>   
##  5      36.7   -0.642 2021-01-01 2022-01-01 Grassland GM-LS8-LS9-AN… <tibble>   
##  6      36.7   -0.673 2021-01-01 2022-01-01 Forest    GM-LS8-LS9-AN… <tibble>   
##  7      36.7   -0.636 2021-01-01 2022-01-01 Grassland GM-LS8-LS9-AN… <tibble>   
##  8      36.7   -0.636 2021-01-01 2022-01-01 Water     GM-LS8-LS9-AN… <tibble>   
##  9      36.7   -0.636 2021-01-01 2022-01-01 Water     GM-LS8-LS9-AN… <tibble>   
## 10      36.7   -0.635 2021-01-01 2022-01-01 Water     GM-LS8-LS9-AN… <tibble>   
## # ℹ 1,148 more rows
…
